G75*
%MOIN*%
%OFA0B0*%
%FSLAX24Y24*%
%IPPOS*%
%LPD*%
%AMOC8*
5,1,8,0,0,1.08239X$1,22.5*
%
%ADD10R,0.0500X0.0450*%
%ADD11R,0.1811X0.0394*%
%ADD12R,0.1339X0.0630*%
%ADD13R,0.0472X0.0217*%
%ADD14R,0.0450X0.0500*%
D10*
X002100Y018670D03*
X002100Y019530D03*
X015475Y025545D03*
X015475Y026405D03*
X017225Y025905D03*
X017225Y025045D03*
D11*
X018268Y025081D03*
X018268Y025869D03*
D12*
X020316Y026814D03*
X020316Y024136D03*
D13*
X016362Y023474D03*
X016362Y023100D03*
X016362Y022726D03*
X015338Y022726D03*
X015338Y023474D03*
D14*
X015545Y024475D03*
X016405Y024475D03*
X016295Y021850D03*
X017155Y021850D03*
M02*
