G75*
%MOIN*%
%OFA0B0*%
%FSLAX24Y24*%
%IPPOS*%
%LPD*%
%AMOC8*
5,1,8,0,0,1.08239X$1,22.5*
%
%ADD10R,0.0682X0.0682*%
%ADD11C,0.0682*%
%ADD12C,0.1293*%
%ADD13R,0.0694X0.0694*%
%ADD14C,0.0694*%
%ADD15C,0.1080*%
%ADD16R,0.0580X0.0530*%
%ADD17C,0.1830*%
%ADD18R,0.1891X0.0474*%
%ADD19R,0.1419X0.0710*%
%ADD20R,0.0552X0.0297*%
%ADD21R,0.0530X0.0580*%
%ADD22R,0.0630X0.0630*%
%ADD23C,0.0476*%
%ADD24C,0.0390*%
%ADD25C,0.0437*%
D10*
X015600Y030600D03*
D11*
X015600Y029419D03*
X014419Y029419D03*
X014419Y030600D03*
X013238Y030600D03*
X013238Y029419D03*
X012057Y029419D03*
X012057Y030600D03*
X010876Y030600D03*
X010876Y029419D03*
X009694Y029419D03*
X009694Y030600D03*
X008513Y030600D03*
X008513Y029419D03*
X007332Y029419D03*
X007332Y030600D03*
X006151Y030600D03*
X006151Y029419D03*
X004970Y029419D03*
X004970Y030600D03*
D12*
X005817Y032301D03*
X014754Y032301D03*
D13*
X005100Y019380D03*
D14*
X005100Y018380D03*
X005100Y017380D03*
X005100Y016380D03*
X005100Y015380D03*
X005100Y014380D03*
X005100Y013380D03*
X005100Y012380D03*
X005100Y011380D03*
X005100Y010380D03*
X005100Y009380D03*
X005100Y008380D03*
X005100Y007380D03*
X005100Y006380D03*
X005100Y005380D03*
X005100Y004380D03*
X005100Y003380D03*
X005100Y002380D03*
X005100Y001380D03*
X015100Y001380D03*
X015100Y002380D03*
X015100Y003380D03*
X015100Y004380D03*
X015100Y005380D03*
X015100Y006380D03*
X015100Y007380D03*
X015100Y008380D03*
X015100Y009380D03*
X015100Y010380D03*
X015100Y011380D03*
X015100Y012380D03*
X015100Y013380D03*
X015100Y014380D03*
X015100Y015380D03*
X015100Y016380D03*
X015100Y017380D03*
X015100Y018380D03*
X015100Y019380D03*
D15*
X002100Y021100D03*
X002100Y022600D03*
X002100Y025600D03*
X002100Y027100D03*
D16*
X002100Y019530D03*
X002100Y018670D03*
X015475Y025545D03*
X015475Y026405D03*
X017225Y025905D03*
X017225Y025045D03*
D17*
X001225Y001225D03*
X019975Y001225D03*
X019975Y032475D03*
X001225Y032475D03*
D18*
X018268Y025869D03*
X018268Y025081D03*
D19*
X020316Y024136D03*
X020316Y026814D03*
D20*
X016362Y023474D03*
X016362Y023100D03*
X016362Y022726D03*
X015338Y022726D03*
X015338Y023474D03*
D21*
X015545Y024475D03*
X016405Y024475D03*
X016295Y021850D03*
X017155Y021850D03*
D22*
X019350Y028475D03*
X019350Y029475D03*
X019100Y008975D03*
X019100Y007975D03*
X001975Y008100D03*
X001975Y009100D03*
D23*
X008600Y013350D03*
X008725Y012475D03*
X008725Y011350D03*
X008725Y010350D03*
X010725Y011475D03*
X011350Y012475D03*
X011725Y010350D03*
X012725Y010100D03*
X011475Y007850D03*
X018100Y019350D03*
X018225Y026100D03*
X017725Y026100D03*
X017225Y026225D03*
D24*
X015475Y024975D03*
X016725Y023100D03*
D25*
X017725Y021850D03*
M02*
