G75*
%MOIN*%
%OFA0B0*%
%FSLAX24Y24*%
%IPPOS*%
%LPD*%
%AMOC8*
5,1,8,0,0,1.08239X$1,22.5*
%
%ADD10C,0.0030*%
%ADD11C,0.0040*%
%ADD12C,0.0060*%
%ADD13C,0.0079*%
%ADD14C,0.0039*%
%ADD15C,0.0000*%
%ADD16C,0.0050*%
%ADD17C,0.0110*%
%ADD18C,0.0080*%
%ADD19C,0.0010*%
%ADD20R,0.0256X0.0197*%
%ADD21C,0.0100*%
D10*
X001363Y018944D02*
X001315Y018992D01*
X001315Y019089D01*
X001363Y019137D01*
X001412Y019137D01*
X001605Y018944D01*
X001605Y019137D01*
X001605Y019238D02*
X001412Y019432D01*
X001363Y019432D01*
X001315Y019383D01*
X001315Y019287D01*
X001363Y019238D01*
X001605Y019238D02*
X001605Y019432D01*
X001557Y019533D02*
X001363Y019726D01*
X001557Y019726D01*
X001605Y019678D01*
X001605Y019581D01*
X001557Y019533D01*
X001363Y019533D01*
X001315Y019581D01*
X001315Y019678D01*
X001363Y019726D01*
X003115Y020865D02*
X003362Y020865D01*
X003483Y020865D02*
X003483Y021235D01*
X003730Y021235D01*
X003852Y021235D02*
X003852Y020865D01*
X004037Y020865D01*
X004099Y020927D01*
X004099Y021174D01*
X004037Y021235D01*
X003852Y021235D01*
X003607Y021050D02*
X003483Y021050D01*
X003483Y020865D02*
X003730Y020865D01*
X003115Y020865D02*
X003115Y021235D01*
X003115Y022365D02*
X003362Y022365D01*
X003483Y022365D02*
X003483Y022735D01*
X003730Y022735D01*
X003852Y022735D02*
X003852Y022365D01*
X004037Y022365D01*
X004099Y022427D01*
X004099Y022674D01*
X004037Y022735D01*
X003852Y022735D01*
X003607Y022550D02*
X003483Y022550D01*
X003483Y022365D02*
X003730Y022365D01*
X003115Y022365D02*
X003115Y022735D01*
X004588Y022550D02*
X004835Y022550D01*
X004712Y021174D02*
X004712Y020927D01*
X004835Y021050D02*
X004588Y021050D01*
X004650Y025365D02*
X004773Y025365D01*
X004835Y025427D01*
X004835Y025735D01*
X004957Y025735D02*
X005203Y025735D01*
X005080Y025735D02*
X005080Y025365D01*
X004650Y025365D02*
X004588Y025427D01*
X004588Y025735D01*
X004467Y025674D02*
X004467Y025550D01*
X004405Y025488D01*
X004220Y025488D01*
X004220Y025365D02*
X004220Y025735D01*
X004405Y025735D01*
X004467Y025674D01*
X004099Y025735D02*
X003852Y025735D01*
X003730Y025735D02*
X003730Y025427D01*
X003668Y025365D01*
X003545Y025365D01*
X003483Y025427D01*
X003483Y025735D01*
X003362Y025674D02*
X003362Y025427D01*
X003300Y025365D01*
X003177Y025365D01*
X003115Y025427D01*
X003115Y025674D01*
X003177Y025735D01*
X003300Y025735D01*
X003362Y025674D01*
X003975Y025735D02*
X003975Y025365D01*
X004159Y026865D02*
X004282Y026865D01*
X004344Y026927D01*
X004344Y027235D01*
X004465Y027235D02*
X004712Y027235D01*
X004589Y027235D02*
X004589Y026865D01*
X004159Y026865D02*
X004097Y026927D01*
X004097Y027235D01*
X003976Y027174D02*
X003976Y027050D01*
X003914Y026988D01*
X003729Y026988D01*
X003729Y026865D02*
X003729Y027235D01*
X003914Y027235D01*
X003976Y027174D01*
X003607Y027235D02*
X003607Y026865D01*
X003361Y027235D01*
X003361Y026865D01*
X003238Y026865D02*
X003115Y026865D01*
X003177Y026865D02*
X003177Y027235D01*
X003238Y027235D02*
X003115Y027235D01*
X017670Y028865D02*
X017815Y028865D01*
X017767Y028962D01*
X017767Y029010D01*
X017815Y029058D01*
X017912Y029058D01*
X017960Y029010D01*
X017960Y028913D01*
X017912Y028865D01*
X017670Y028865D02*
X017670Y029058D01*
X017670Y029160D02*
X017863Y029160D01*
X017960Y029256D01*
X017863Y029353D01*
X017670Y029353D01*
X017718Y029749D02*
X017912Y029749D01*
X017960Y029797D01*
X017960Y029894D01*
X017912Y029942D01*
X017960Y030044D02*
X017670Y030044D01*
X017718Y029942D02*
X017670Y029894D01*
X017670Y029797D01*
X017718Y029749D01*
X017815Y030044D02*
X017815Y030237D01*
X017815Y030338D02*
X017815Y030532D01*
X017767Y030532D02*
X017960Y030532D01*
X017960Y030633D02*
X017670Y030633D01*
X017670Y030778D01*
X017718Y030826D01*
X017815Y030826D01*
X017863Y030778D01*
X017863Y030633D01*
X017863Y030730D02*
X017960Y030826D01*
X017912Y030928D02*
X017960Y030976D01*
X017960Y031073D01*
X017912Y031121D01*
X017815Y031121D01*
X017815Y031024D01*
X017718Y030928D02*
X017912Y030928D01*
X017718Y030928D02*
X017670Y030976D01*
X017670Y031073D01*
X017718Y031121D01*
X017670Y031222D02*
X017960Y031222D01*
X017960Y031416D01*
X017815Y031319D02*
X017815Y031222D01*
X017670Y031222D02*
X017670Y031416D01*
X017767Y030532D02*
X017670Y030435D01*
X017767Y030338D01*
X017960Y030338D01*
X017960Y030237D02*
X017670Y030237D01*
D11*
X017830Y028604D02*
X017830Y028363D01*
X017830Y028483D02*
X017470Y028483D01*
X017590Y028363D01*
X017470Y028235D02*
X017470Y028115D01*
X017470Y028175D02*
X017770Y028175D01*
X017830Y028115D01*
X017830Y028055D01*
X017770Y027995D01*
X017243Y026919D02*
X016882Y026919D01*
X017062Y026739D01*
X017062Y026979D01*
X016942Y026611D02*
X016882Y026551D01*
X016882Y026431D01*
X016942Y026371D01*
X017182Y026371D01*
X017243Y026431D01*
X017243Y026551D01*
X017182Y026611D01*
X018225Y026492D02*
X018225Y026185D01*
X018225Y024492D02*
X018225Y024185D01*
X018378Y024338D02*
X018071Y024338D01*
X017393Y023416D02*
X017393Y023176D01*
X017152Y023416D01*
X017092Y023416D01*
X017032Y023356D01*
X017032Y023236D01*
X017092Y023176D01*
X017032Y023048D02*
X017332Y023048D01*
X017393Y022988D01*
X017393Y022868D01*
X017332Y022808D01*
X017032Y022808D01*
X017692Y022042D02*
X017752Y022042D01*
X017812Y021982D01*
X017872Y022042D01*
X017932Y022042D01*
X017993Y021982D01*
X017993Y021862D01*
X017932Y021802D01*
X017993Y021674D02*
X017872Y021553D01*
X017872Y021614D02*
X017872Y021433D01*
X017993Y021433D02*
X017632Y021433D01*
X017632Y021614D01*
X017692Y021674D01*
X017812Y021674D01*
X017872Y021614D01*
X017692Y021802D02*
X017632Y021862D01*
X017632Y021982D01*
X017692Y022042D01*
X017812Y021982D02*
X017812Y021922D01*
X017143Y021185D02*
X016963Y021065D01*
X017143Y020945D01*
X016963Y020945D02*
X016963Y021305D01*
X016835Y021245D02*
X016775Y021305D01*
X016655Y021305D01*
X016595Y021245D01*
X016835Y021245D02*
X016835Y021185D01*
X016595Y020945D01*
X016835Y020945D01*
X014945Y024195D02*
X015005Y024255D01*
X015005Y024375D01*
X014945Y024435D01*
X014945Y024563D02*
X015005Y024623D01*
X015005Y024743D01*
X014945Y024804D01*
X014885Y024804D01*
X014825Y024743D01*
X014825Y024683D01*
X014825Y024743D02*
X014765Y024804D01*
X014705Y024804D01*
X014645Y024743D01*
X014645Y024623D01*
X014705Y024563D01*
X014705Y024435D02*
X014645Y024375D01*
X014645Y024255D01*
X014705Y024195D01*
X014945Y024195D01*
X015193Y026883D02*
X015313Y026883D01*
X015373Y026943D01*
X015501Y026883D02*
X015741Y027123D01*
X015741Y027183D01*
X015681Y027243D01*
X015561Y027243D01*
X015501Y027183D01*
X015373Y027183D02*
X015313Y027243D01*
X015193Y027243D01*
X015133Y027183D01*
X015133Y026943D01*
X015193Y026883D01*
X015501Y026883D02*
X015741Y026883D01*
X010612Y031385D02*
X010305Y031385D01*
X010612Y031692D01*
X010612Y031769D01*
X010535Y031845D01*
X010382Y031845D01*
X010305Y031769D01*
X010152Y031845D02*
X009998Y031845D01*
X010075Y031845D02*
X010075Y031462D01*
X009998Y031385D01*
X009921Y031385D01*
X009845Y031462D01*
X009003Y025467D02*
X009080Y025390D01*
X009080Y025236D01*
X009003Y025160D01*
X008927Y025160D01*
X008850Y025236D01*
X008850Y025390D01*
X008927Y025467D01*
X009003Y025467D01*
X008850Y025390D02*
X008773Y025467D01*
X008696Y025467D01*
X008620Y025390D01*
X008620Y025236D01*
X008696Y025160D01*
X008773Y025160D01*
X008850Y025236D01*
X008696Y025006D02*
X009003Y025006D01*
X009080Y024929D01*
X009080Y024776D01*
X009003Y024699D01*
X008696Y025006D01*
X008620Y024929D01*
X008620Y024776D01*
X008696Y024699D01*
X009003Y024699D01*
X008696Y024546D02*
X009003Y024239D01*
X009080Y024239D01*
X009080Y024085D02*
X009080Y023778D01*
X009080Y023932D02*
X008620Y023932D01*
X008773Y023778D01*
X008696Y023625D02*
X008620Y023548D01*
X008620Y023395D01*
X008696Y023318D01*
X009003Y023318D01*
X009080Y023395D01*
X009080Y023548D01*
X009003Y023625D01*
X008850Y023165D02*
X008927Y023088D01*
X008927Y022858D01*
X009080Y022858D02*
X008620Y022858D01*
X008620Y023088D01*
X008696Y023165D01*
X008850Y023165D01*
X009003Y022704D02*
X009080Y022627D01*
X009080Y022474D01*
X009003Y022397D01*
X008696Y022397D01*
X008620Y022474D01*
X008620Y022627D01*
X008696Y022704D01*
X008620Y024239D02*
X008620Y024546D01*
X008696Y024546D01*
X005834Y022953D02*
X005834Y022799D01*
X005757Y022723D01*
X005527Y022723D01*
X005374Y022723D02*
X005374Y022646D01*
X005297Y022569D01*
X005143Y022569D01*
X005067Y022646D01*
X005143Y022799D02*
X005067Y022876D01*
X005067Y022953D01*
X005143Y023030D01*
X005297Y023030D01*
X005374Y022953D01*
X005527Y023030D02*
X005527Y022569D01*
X005374Y022723D02*
X005297Y022799D01*
X005143Y022799D01*
X004913Y022569D02*
X004606Y022569D01*
X004606Y023030D01*
X004913Y023030D01*
X004760Y022799D02*
X004606Y022799D01*
X005527Y023030D02*
X005757Y023030D01*
X005834Y022953D01*
X002993Y019854D02*
X002993Y019614D01*
X002752Y019854D01*
X002692Y019854D01*
X002632Y019794D01*
X002632Y019674D01*
X002692Y019614D01*
X002692Y019486D02*
X002812Y019486D01*
X002872Y019426D01*
X002872Y019246D01*
X002872Y019366D02*
X002993Y019486D01*
X002993Y019246D02*
X002632Y019246D01*
X002632Y019426D01*
X002692Y019486D01*
X003745Y010951D02*
X003745Y010604D01*
X003745Y010436D02*
X004178Y010436D01*
X004265Y010349D01*
X004265Y010175D01*
X004178Y010089D01*
X003745Y010089D01*
X003831Y009920D02*
X003745Y009833D01*
X003745Y009573D01*
X004265Y009573D01*
X004265Y009404D02*
X003745Y009404D01*
X003675Y009432D02*
X003735Y009492D01*
X003795Y009492D01*
X003855Y009432D01*
X003855Y009312D01*
X003795Y009252D01*
X003675Y009372D02*
X003675Y009432D01*
X003615Y009492D01*
X003555Y009492D01*
X003495Y009432D01*
X003495Y009312D01*
X003555Y009252D01*
X003495Y009124D02*
X003495Y009003D01*
X003495Y009064D02*
X003795Y009064D01*
X003855Y009003D01*
X003855Y008943D01*
X003795Y008883D01*
X003745Y008887D02*
X003745Y008714D01*
X003745Y008800D02*
X004265Y008800D01*
X004265Y008714D02*
X004265Y008887D01*
X004265Y009057D02*
X003745Y009057D01*
X004265Y009404D01*
X004092Y009573D02*
X004092Y009833D01*
X004005Y009920D01*
X003831Y009920D01*
X003745Y010778D02*
X004265Y010778D01*
X004092Y008029D02*
X003745Y008029D01*
X003745Y007682D02*
X004092Y007682D01*
X004265Y007856D01*
X004092Y008029D01*
X004005Y007514D02*
X004178Y007514D01*
X004265Y007427D01*
X004265Y007253D01*
X004178Y007167D01*
X004005Y007167D02*
X003918Y007340D01*
X003918Y007427D01*
X004005Y007514D01*
X003745Y007514D02*
X003745Y007167D01*
X004005Y007167D01*
X016685Y007130D02*
X016771Y007217D01*
X016858Y007217D01*
X016945Y007130D01*
X017032Y007217D01*
X017118Y007217D01*
X017205Y007130D01*
X017205Y006957D01*
X017118Y006870D01*
X016945Y007043D02*
X016945Y007130D01*
X016685Y007130D02*
X016685Y006957D01*
X016771Y006870D01*
X017118Y007386D02*
X017118Y007472D01*
X017205Y007472D01*
X017205Y007386D01*
X017118Y007386D01*
X017220Y007615D02*
X017220Y007735D01*
X017220Y007675D02*
X017520Y007675D01*
X017580Y007615D01*
X017580Y007555D01*
X017520Y007495D01*
X017205Y007643D02*
X017118Y007643D01*
X016771Y007990D01*
X016685Y007990D01*
X016685Y007643D01*
X016685Y008159D02*
X017032Y008159D01*
X017205Y008333D01*
X017032Y008506D01*
X016685Y008506D01*
X016771Y009190D02*
X016685Y009277D01*
X016685Y009451D01*
X016771Y009537D01*
X017118Y009537D01*
X017205Y009451D01*
X017205Y009277D01*
X017118Y009190D01*
X016771Y009190D01*
X016685Y009706D02*
X017118Y009706D01*
X017205Y009793D01*
X017205Y009966D01*
X017118Y010053D01*
X016685Y010053D01*
X016685Y010222D02*
X016685Y010569D01*
X016685Y010737D02*
X016685Y010998D01*
X016771Y011084D01*
X016945Y011084D01*
X017032Y010998D01*
X017032Y010737D01*
X017205Y010737D02*
X016685Y010737D01*
X016685Y010395D02*
X017205Y010395D01*
X017118Y011253D02*
X017205Y011340D01*
X017205Y011513D01*
X017118Y011600D01*
X016685Y011600D01*
X016685Y011769D02*
X016685Y012116D01*
X016685Y011942D02*
X017205Y011942D01*
X017118Y011253D02*
X016685Y011253D01*
X017400Y008104D02*
X017400Y007863D01*
X017220Y008043D01*
X017580Y008043D01*
D12*
X018755Y007075D02*
X019182Y007075D01*
X018969Y007289D02*
X018969Y006862D01*
X016165Y022549D02*
X015535Y022549D01*
X015535Y023651D01*
X016165Y023651D01*
X016165Y022549D01*
X019505Y027825D02*
X019932Y027825D01*
X019719Y028039D02*
X019719Y027612D01*
X002807Y010075D02*
X002380Y010075D01*
X002594Y009862D02*
X002594Y010289D01*
D13*
X004210Y030600D02*
X016360Y030600D01*
X016360Y034112D01*
X004210Y034112D01*
X004210Y030600D01*
X004210Y032047D02*
X003592Y032047D01*
X003592Y032665D01*
X004210Y032665D01*
X004210Y032047D01*
X016360Y032047D02*
X016360Y032665D01*
X016978Y032665D01*
X016978Y032047D01*
X016360Y032047D01*
D14*
X016360Y030600D02*
X016360Y034112D01*
X016360Y034112D01*
X004210Y034112D01*
X004210Y030600D01*
X004210Y030600D01*
X004210Y034112D01*
X004210Y034112D01*
X004210Y034112D01*
X016360Y034112D01*
X016360Y034112D01*
X016360Y030600D01*
X016360Y030600D01*
X017372Y028724D02*
X017372Y034506D01*
X003198Y034506D01*
X003198Y028724D01*
X017372Y028724D01*
D15*
X001625Y001225D02*
X000825Y001225D01*
X001225Y000825D02*
X001225Y001625D01*
X001975Y008200D02*
X001975Y009000D01*
X001575Y008600D02*
X002375Y008600D01*
X002100Y018700D02*
X002100Y019500D01*
X001700Y019100D02*
X002500Y019100D01*
X004100Y023700D02*
X004100Y024500D01*
X003700Y024100D02*
X004500Y024100D01*
X001225Y032075D02*
X001225Y032875D01*
X000825Y032475D02*
X001625Y032475D01*
X010100Y012000D02*
X010100Y011200D01*
X009700Y011600D02*
X010500Y011600D01*
X016725Y021450D02*
X016725Y022250D01*
X016325Y021850D02*
X017125Y021850D01*
X016250Y023100D02*
X015450Y023100D01*
X015850Y022700D02*
X015850Y023500D01*
X015975Y024112D02*
X015975Y024838D01*
X015612Y024475D02*
X016338Y024475D01*
X016904Y025475D02*
X017546Y025475D01*
X017225Y025154D02*
X017225Y025796D01*
X015838Y025975D02*
X015112Y025975D01*
X015475Y025612D02*
X015475Y026338D01*
X015600Y030200D02*
X015600Y031000D01*
X015200Y030600D02*
X016000Y030600D01*
X018950Y028975D02*
X019750Y028975D01*
X019350Y028575D02*
X019350Y029375D01*
X019975Y032075D02*
X019975Y032875D01*
X019575Y032475D02*
X020375Y032475D01*
X019725Y025875D02*
X019725Y025075D01*
X019325Y025475D02*
X020125Y025475D01*
X019100Y008875D02*
X019100Y008075D01*
X018700Y008475D02*
X019500Y008475D01*
X019975Y001625D02*
X019975Y000825D01*
X019575Y001225D02*
X020375Y001225D01*
D16*
X015592Y000872D02*
X004608Y000872D01*
X004608Y022289D01*
X015592Y022289D01*
X015592Y000872D01*
X004608Y000872D01*
X004608Y022289D01*
X015592Y022289D01*
X015592Y000872D01*
X012100Y019600D02*
X006100Y019600D01*
X006100Y028600D01*
X012100Y028600D01*
X012100Y019600D01*
X015225Y024100D02*
X015225Y024850D01*
X015475Y024850D01*
X015100Y025225D02*
X015850Y025225D01*
X015850Y025475D01*
X015100Y025475D02*
X015100Y025225D01*
X015225Y024100D02*
X015475Y024100D01*
X016475Y024100D02*
X016725Y024100D01*
X016725Y024850D01*
X016475Y024850D01*
X016850Y024725D02*
X016850Y024975D01*
X016850Y024725D02*
X017600Y024725D01*
X017600Y024975D01*
X017600Y025975D02*
X017600Y026225D01*
X016850Y026225D01*
X016850Y025975D01*
X015850Y026475D02*
X015850Y026725D01*
X015100Y026725D01*
X015100Y026475D01*
X015975Y022225D02*
X015975Y021475D01*
X016225Y021475D01*
X016225Y022225D02*
X015975Y022225D01*
X017225Y022225D02*
X017475Y022225D01*
X017475Y021475D01*
X017225Y021475D01*
X002475Y019850D02*
X002475Y019600D01*
X002475Y019850D02*
X001725Y019850D01*
X001725Y019600D01*
X001725Y018600D02*
X001725Y018350D01*
X002475Y018350D01*
X002475Y018600D01*
D17*
X004297Y019435D02*
X004299Y019449D01*
X004304Y019462D01*
X004313Y019474D01*
X004324Y019483D01*
X004338Y019488D01*
X004352Y019490D01*
X004366Y019488D01*
X004379Y019483D01*
X004391Y019474D01*
X004400Y019463D01*
X004405Y019449D01*
X004407Y019435D01*
X004405Y019421D01*
X004400Y019408D01*
X004391Y019396D01*
X004380Y019387D01*
X004366Y019382D01*
X004352Y019380D01*
X004338Y019382D01*
X004325Y019387D01*
X004313Y019396D01*
X004304Y019407D01*
X004299Y019421D01*
X004297Y019435D01*
X004299Y019449D01*
X004304Y019462D01*
X004313Y019474D01*
X004324Y019483D01*
X004338Y019488D01*
X004352Y019490D01*
X004366Y019488D01*
X004379Y019483D01*
X004391Y019474D01*
X004400Y019463D01*
X004405Y019449D01*
X004407Y019435D01*
X004405Y019421D01*
X004400Y019408D01*
X004391Y019396D01*
X004380Y019387D01*
X004366Y019382D01*
X004352Y019380D01*
X004338Y019382D01*
X004325Y019387D01*
X004313Y019396D01*
X004304Y019407D01*
X004299Y019421D01*
X004297Y019435D01*
D18*
X015531Y022994D02*
X015531Y023206D01*
X015681Y023660D02*
X016019Y023660D01*
X016019Y022540D02*
X015681Y022540D01*
X017953Y023900D02*
X019331Y023900D01*
X018938Y024215D02*
X018938Y024688D01*
X018938Y024215D02*
X017953Y024215D01*
X017953Y023900D01*
X018938Y026262D02*
X018938Y026735D01*
X017953Y026735D01*
X017953Y027050D01*
X019331Y027050D01*
X020906Y026262D02*
X020906Y024688D01*
D19*
X020380Y025538D02*
X020380Y025638D01*
X020355Y025685D02*
X020380Y025710D01*
X020380Y025760D01*
X020355Y025785D01*
X020330Y025785D01*
X020305Y025760D01*
X020305Y025710D01*
X020280Y025685D01*
X020255Y025685D01*
X020230Y025710D01*
X020230Y025760D01*
X020255Y025785D01*
X020255Y025833D02*
X020280Y025833D01*
X020305Y025858D01*
X020305Y025933D01*
X020355Y025933D02*
X020255Y025933D01*
X020230Y025908D01*
X020230Y025858D01*
X020255Y025833D01*
X020355Y025833D02*
X020380Y025858D01*
X020380Y025908D01*
X020355Y025933D01*
X020405Y025735D02*
X020205Y025735D01*
X020230Y025638D02*
X020230Y025538D01*
X020380Y025538D01*
X020305Y025538D02*
X020305Y025588D01*
D20*
X016313Y023474D03*
X016313Y023100D03*
X016313Y022726D03*
X015387Y022726D03*
X015387Y023474D03*
D21*
X018100Y027975D02*
X018850Y027975D01*
X018850Y029975D01*
X020600Y029975D01*
X020600Y027975D01*
X018850Y027975D01*
X018100Y027975D02*
X018100Y029975D01*
X018850Y029975D01*
X018600Y009475D02*
X017850Y009475D01*
X017850Y007475D01*
X018600Y007475D01*
X018600Y009475D01*
X020350Y009475D01*
X020350Y007475D01*
X018600Y007475D01*
X003225Y007600D02*
X002475Y007600D01*
X002475Y009600D01*
X003225Y009600D01*
X003225Y007600D01*
X002475Y007600D02*
X000725Y007600D01*
X000725Y009600D01*
X002475Y009600D01*
M02*
